,genero,data_nascimento,cidade,estado,doenca
0,Female,**/**/**,*,KS,gripe
1,Female,**/**/**,*,KS,gastrite
2,Female,**/**/**,*,KS,zica
3,Female,**/**/**,*,KS,tuberculose
4,Female,**/**/**,*,KS,gripe
5,Female,**/**/**,*,KS,dengue
6,Female,**/**/**,*,KS,gastrite
7,Female,**/**/**,*,KS,tuberculose
8,Female,**/**/**,*,KS,tuberculose
9,Female,**/**/**,*,KS,gripe
10,Female,**/**/**,*,KS,gripe
11,Female,**/**/**,*,KS,tuberculose
12,Female,**/**/**,*,KS,dengue
13,Female,**/**/**,*,KS,tuberculose
14,Female,**/**/**,*,KS,febre
15,Female,**/**/**,*,KS,pneumonia
16,Female,**/**/**,*,KS,zica
17,Female,**/**/**,*,KS,gripe
18,Female,**/**/**,*,KS,tuberculose
19,Female,**/**/**,*,KS,tuberculose
20,Female,**/**/**,Wichita,KS,febre
21,Female,**/**/**,Wichita,KS,gripe
22,Female,**/**/**,Wichita,KS,gripe
23,Female,**/**/**,Wichita,KS,dengue
24,Female,**/**/**,Wichita,KS,dengue
25,Female,**/**/**,Wichita,KS,gastrite
26,Female,**/**/**,Wichita,KS,zica
27,Female,**/**/**,Wichita,KS,tuberculose
28,Female,**/**/**,Wichita,KS,febre
29,Female,**/**/**,Wichita,KS,tuberculose
30,Female,**/**/**,Albany,NY,febre
31,Female,**/**/**,Albany,NY,febre
32,Female,**/**/**,Albany,NY,gripe
33,Female,**/**/**,Albany,NY,tuberculose
34,Female,**/**/**,Albany,NY,zica
35,Female,**/**/**,Albany,NY,febre
36,Female,**/**/**,Albany,NY,gastrite
37,Female,**/**/**,Albany,NY,febre
38,Female,**/**/**,Albany,NY,gastrite
39,Female,**/**/**,Albany,NY,gastrite
40,Female,**/**/**,*,NY,zica
41,Female,**/**/**,*,NY,tuberculose
42,Female,**/**/**,*,NY,febre
43,Female,**/**/**,*,NY,gripe
44,Female,**/**/**,*,NY,tuberculose
45,Female,**/**/**,*,NY,dengue
46,Female,**/**/**,*,NY,dengue
47,Female,**/**/**,*,NY,pneumonia
48,Female,**/**/**,*,NY,gastrite
49,Female,**/**/**,*,NY,pneumonia
50,Female,**/**/**,Brooklyn,NY,gripe
51,Female,**/**/**,Brooklyn,NY,zica
52,Female,**/**/**,Brooklyn,NY,gripe
53,Female,**/**/**,Brooklyn,NY,zica
54,Female,**/**/**,Brooklyn,NY,gastrite
55,Female,**/**/**,Brooklyn,NY,febre
56,Female,**/**/**,Brooklyn,NY,tuberculose
57,Female,**/**/**,Brooklyn,NY,pneumonia
58,Female,**/**/**,Brooklyn,NY,gripe
59,Female,**/**/**,Brooklyn,NY,gripe
60,Female,**/**/**,*,NY,febre
61,Female,**/**/**,*,NY,zica
62,Female,**/**/**,*,NY,tuberculose
63,Female,**/**/**,*,NY,dengue
64,Female,**/**/**,*,NY,tuberculose
65,Female,**/**/**,*,NY,tuberculose
66,Female,**/**/**,*,NY,gripe
67,Female,**/**/**,*,NY,febre
68,Female,**/**/**,*,NY,febre
69,Female,**/**/**,*,NY,febre
70,Female,**/**/**,*,NY,febre
71,Female,**/**/**,*,NY,gripe
72,Female,**/**/**,*,NY,gripe
73,Female,**/**/**,*,NY,gastrite
74,Female,**/**/**,*,NY,gastrite
75,Female,**/**/**,*,NY,tuberculose
76,Female,**/**/**,*,NY,gripe
77,Female,**/**/**,*,NY,febre
78,Female,**/**/**,*,NY,pneumonia
79,Female,**/**/**,*,NY,zica
80,Female,**/**/**,Jamaica,NY,zica
81,Female,**/**/**,Jamaica,NY,tuberculose
82,Female,**/**/**,Jamaica,NY,pneumonia
83,Female,**/**/**,Jamaica,NY,gripe
84,Female,**/**/**,Jamaica,NY,gastrite
85,Female,**/**/**,Jamaica,NY,gripe
86,Female,**/**/**,Jamaica,NY,gastrite
87,Female,**/**/**,Jamaica,NY,gastrite
88,Female,**/**/**,Jamaica,NY,gastrite
89,Female,**/**/**,Jamaica,NY,zica
90,Female,**/**/**,*,NY,tuberculose
91,Female,**/**/**,*,NY,tuberculose
92,Female,**/**/**,*,NY,gastrite
93,Female,**/**/**,*,NY,dengue
94,Female,**/**/**,*,NY,zica
95,Female,**/**/**,*,NY,tuberculose
96,Female,**/**/**,*,NY,gripe
97,Female,**/**/**,*,NY,febre
98,Female,**/**/**,*,NY,pneumonia
99,Female,**/**/**,*,NY,zica
100,Female,**/**/**,New York City,NY,gastrite
101,Female,**/**/**,New York City,NY,febre
102,Female,**/**/**,New York City,NY,gastrite
103,Female,**/**/**,New York City,NY,zica
104,Female,**/**/**,New York City,NY,pneumonia
105,Female,**/**/**,New York City,NY,zica
106,Female,**/**/**,New York City,NY,zica
107,Female,**/**/**,New York City,NY,gripe
108,Female,**/**/**,New York City,NY,pneumonia
109,Female,**/**/**,New York City,NY,gripe
110,Female,**/**/**,New York City,NY,tuberculose
111,Female,**/**/**,New York City,NY,zica
112,Female,**/**/**,New York City,NY,febre
113,Female,**/**/**,New York City,NY,zica
114,Female,**/**/**,New York City,NY,gripe
115,Female,**/**/**,New York City,NY,febre
116,Female,**/**/**,New York City,NY,febre
117,Female,**/**/**,New York City,NY,gastrite
118,Female,**/**/**,New York City,NY,gripe
119,Female,**/**/**,New York City,NY,gastrite
120,Female,**/**/**,New York City,NY,febre
121,Female,**/**/**,New York City,NY,febre
122,Female,**/**/**,New York City,NY,gripe
123,Female,**/**/**,New York City,NY,tuberculose
124,Female,**/**/**,New York City,NY,febre
125,Female,**/**/**,New York City,NY,gripe
126,Female,**/**/**,New York City,NY,febre
127,Female,**/**/**,New York City,NY,dengue
128,Female,**/**/**,New York City,NY,febre
129,Female,**/**/**,New York City,NY,pneumonia
130,Female,**/**/**,*,NY,dengue
131,Female,**/**/**,*,NY,febre
132,Female,**/**/**,*,NY,zica
133,Female,**/**/**,*,NY,zica
134,Female,**/**/**,*,NY,gastrite
135,Female,**/**/**,*,NY,tuberculose
136,Female,**/**/**,*,NY,gastrite
137,Female,**/**/**,*,NY,pneumonia
138,Female,**/**/**,*,NY,febre
139,Female,**/**/**,*,NY,tuberculose
140,Female,**/**/**,Rochester,NY,zica
141,Female,**/**/**,Rochester,NY,gastrite
142,Female,**/**/**,Rochester,NY,gripe
143,Female,**/**/**,Rochester,NY,gripe
144,Female,**/**/**,Rochester,NY,gripe
145,Female,**/**/**,Rochester,NY,febre
146,Female,**/**/**,Rochester,NY,zica
147,Female,**/**/**,Rochester,NY,zica
148,Female,**/**/**,Rochester,NY,febre
149,Female,**/**/**,Rochester,NY,pneumonia
150,Female,**/**/**,*,NY,febre
151,Female,**/**/**,*,NY,dengue
152,Female,**/**/**,*,NY,zica
153,Female,**/**/**,*,NY,pneumonia
154,Female,**/**/**,*,NY,zica
155,Female,**/**/**,*,NY,pneumonia
156,Female,**/**/**,*,NY,gripe
157,Female,**/**/**,*,NY,gripe
158,Female,**/**/**,*,NY,gripe
159,Female,**/**/**,*,NY,zica
160,Female,**/**/**,*,*,zica
161,Female,**/**/**,*,*,gripe
162,Female,**/**/**,*,*,gastrite
163,Female,**/**/**,*,*,dengue
164,Female,**/**/**,*,*,tuberculose
165,Female,**/**/**,*,*,pneumonia
166,Female,**/**/**,*,*,pneumonia
167,Female,**/**/**,*,*,gripe
168,Female,**/**/**,*,*,febre
169,Female,**/**/**,*,*,gastrite
170,Female,**/**/**,*,TN,gastrite
171,Female,**/**/**,*,TN,tuberculose
172,Female,**/**/**,*,TN,febre
173,Female,**/**/**,*,TN,gastrite
174,Female,**/**/**,*,TN,tuberculose
175,Female,**/**/**,*,TN,tuberculose
176,Female,**/**/**,*,TN,febre
177,Female,**/**/**,*,TN,gastrite
178,Female,**/**/**,*,TN,dengue
179,Female,**/**/**,*,TN,zica
180,Female,**/**/**,*,TN,dengue
181,Female,**/**/**,*,TN,febre
182,Female,**/**/**,*,TN,febre
183,Female,**/**/**,*,TN,gastrite
184,Female,**/**/**,*,TN,febre
185,Female,**/**/**,*,TN,pneumonia
186,Female,**/**/**,*,TN,pneumonia
187,Female,**/**/**,*,TN,gastrite
188,Female,**/**/**,*,TN,dengue
189,Female,**/**/**,*,TN,gripe
190,Female,**/**/**,Memphis,TN,gastrite
191,Female,**/**/**,Memphis,TN,tuberculose
192,Female,**/**/**,Memphis,TN,pneumonia
193,Female,**/**/**,Memphis,TN,zica
194,Female,**/**/**,Memphis,TN,gastrite
195,Female,**/**/**,Memphis,TN,febre
196,Female,**/**/**,Memphis,TN,gripe
197,Female,**/**/**,Memphis,TN,tuberculose
198,Female,**/**/**,Memphis,TN,dengue
199,Female,**/**/**,Memphis,TN,febre
200,Female,**/**/**,*,TN,febre
201,Female,**/**/**,*,TN,gripe
202,Female,**/**/**,*,TN,gripe
203,Female,**/**/**,*,TN,tuberculose
204,Female,**/**/**,*,TN,febre
205,Female,**/**/**,*,TN,tuberculose
206,Female,**/**/**,*,TN,tuberculose
207,Female,**/**/**,*,TN,febre
208,Female,**/**/**,*,TN,dengue
209,Female,**/**/**,*,TN,gripe
210,Female,**/**/**,*,*,tuberculose
211,Female,**/**/**,*,*,tuberculose
212,Female,**/**/**,*,*,tuberculose
213,Female,**/**/**,*,*,febre
214,Female,**/**/**,*,*,zica
215,Female,**/**/**,*,*,gastrite
216,Female,**/**/**,*,*,gripe
217,Female,**/**/**,*,*,tuberculose
218,Female,**/**/**,*,*,dengue
219,Female,**/**/**,*,*,zica
220,Female,**/**/**,*,TX,dengue
221,Female,**/**/**,*,TX,tuberculose
222,Female,**/**/**,*,TX,dengue
223,Female,**/**/**,*,TX,zica
224,Female,**/**/**,*,TX,febre
225,Female,**/**/**,*,TX,gripe
226,Female,**/**/**,*,TX,tuberculose
227,Female,**/**/**,*,TX,febre
228,Female,**/**/**,*,TX,febre
229,Female,**/**/**,*,TX,pneumonia
230,Female,**/**/**,*,TX,zica
231,Female,**/**/**,*,TX,gripe
232,Female,**/**/**,*,TX,febre
233,Female,**/**/**,*,TX,febre
234,Female,**/**/**,*,TX,dengue
235,Female,**/**/**,*,TX,zica
236,Female,**/**/**,*,TX,gastrite
237,Female,**/**/**,*,TX,tuberculose
238,Female,**/**/**,*,TX,dengue
239,Female,**/**/**,*,TX,febre
240,Female,**/**/**,Austin,TX,zica
241,Female,**/**/**,Austin,TX,gastrite
242,Female,**/**/**,Austin,TX,pneumonia
243,Female,**/**/**,Austin,TX,dengue
244,Female,**/**/**,Austin,TX,febre
245,Female,**/**/**,Austin,TX,febre
246,Female,**/**/**,Austin,TX,febre
247,Female,**/**/**,Austin,TX,dengue
248,Female,**/**/**,Austin,TX,tuberculose
249,Female,**/**/**,Austin,TX,tuberculose
250,Female,**/**/**,*,TX,tuberculose
251,Female,**/**/**,*,TX,gastrite
252,Female,**/**/**,*,TX,dengue
253,Female,**/**/**,*,TX,tuberculose
254,Female,**/**/**,*,TX,febre
255,Female,**/**/**,*,TX,dengue
256,Female,**/**/**,*,TX,tuberculose
257,Female,**/**/**,*,TX,gripe
258,Female,**/**/**,*,TX,pneumonia
259,Female,**/**/**,*,TX,dengue
260,Female,**/**/**,*,TX,gripe
261,Female,**/**/**,*,TX,dengue
262,Female,**/**/**,*,TX,pneumonia
263,Female,**/**/**,*,TX,tuberculose
264,Female,**/**/**,*,TX,gripe
265,Female,**/**/**,*,TX,tuberculose
266,Female,**/**/**,*,TX,febre
267,Female,**/**/**,*,TX,febre
268,Female,**/**/**,*,TX,dengue
269,Female,**/**/**,*,TX,gripe
270,Female,**/**/**,Dallas,TX,febre
271,Female,**/**/**,Dallas,TX,dengue
272,Female,**/**/**,Dallas,TX,zica
273,Female,**/**/**,Dallas,TX,pneumonia
274,Female,**/**/**,Dallas,TX,febre
275,Female,**/**/**,Dallas,TX,febre
276,Female,**/**/**,Dallas,TX,dengue
277,Female,**/**/**,Dallas,TX,gripe
278,Female,**/**/**,Dallas,TX,zica
279,Female,**/**/**,Dallas,TX,gripe
280,Female,**/**/**,Dallas,TX,tuberculose
281,Female,**/**/**,Dallas,TX,gripe
282,Female,**/**/**,Dallas,TX,dengue
283,Female,**/**/**,Dallas,TX,dengue
284,Female,**/**/**,Dallas,TX,febre
285,Female,**/**/**,Dallas,TX,dengue
286,Female,**/**/**,Dallas,TX,gastrite
287,Female,**/**/**,Dallas,TX,dengue
288,Female,**/**/**,Dallas,TX,gripe
289,Female,**/**/**,Dallas,TX,febre
290,Female,**/**/**,Dallas,TX,gastrite
291,Female,**/**/**,Dallas,TX,zica
292,Female,**/**/**,Dallas,TX,zica
293,Female,**/**/**,Dallas,TX,gastrite
294,Female,**/**/**,Dallas,TX,tuberculose
295,Female,**/**/**,Dallas,TX,gastrite
296,Female,**/**/**,Dallas,TX,dengue
297,Female,**/**/**,Dallas,TX,tuberculose
298,Female,**/**/**,Dallas,TX,gripe
299,Female,**/**/**,Dallas,TX,pneumonia
300,Female,**/**/**,*,TX,tuberculose
301,Female,**/**/**,*,TX,gripe
302,Female,**/**/**,*,TX,gastrite
303,Female,**/**/**,*,TX,febre
304,Female,**/**/**,*,TX,gripe
305,Female,**/**/**,*,TX,zica
306,Female,**/**/**,*,TX,febre
307,Female,**/**/**,*,TX,zica
308,Female,**/**/**,*,TX,tuberculose
309,Female,**/**/**,*,TX,tuberculose
310,Female,**/**/**,El Paso,TX,tuberculose
311,Female,**/**/**,El Paso,TX,zica
312,Female,**/**/**,El Paso,TX,gripe
313,Female,**/**/**,El Paso,TX,gripe
314,Female,**/**/**,El Paso,TX,dengue
315,Female,**/**/**,El Paso,TX,tuberculose
316,Female,**/**/**,El Paso,TX,gripe
317,Female,**/**/**,El Paso,TX,zica
318,Female,**/**/**,El Paso,TX,gripe
319,Female,**/**/**,El Paso,TX,febre
320,Female,**/**/**,El Paso,TX,tuberculose
321,Female,**/**/**,El Paso,TX,febre
322,Female,**/**/**,El Paso,TX,gripe
323,Female,**/**/**,El Paso,TX,tuberculose
324,Female,**/**/**,El Paso,TX,gastrite
325,Female,**/**/**,El Paso,TX,febre
326,Female,**/**/**,El Paso,TX,zica
327,Female,**/**/**,El Paso,TX,gastrite
328,Female,**/**/**,El Paso,TX,gripe
329,Female,**/**/**,El Paso,TX,gripe
330,Female,**/**/**,El Paso,TX,zica
331,Female,**/**/**,El Paso,TX,gripe
332,Female,**/**/**,El Paso,TX,gastrite
333,Female,**/**/**,El Paso,TX,zica
334,Female,**/**/**,El Paso,TX,tuberculose
335,Female,**/**/**,El Paso,TX,dengue
336,Female,**/**/**,El Paso,TX,dengue
337,Female,**/**/**,El Paso,TX,dengue
338,Female,**/**/**,El Paso,TX,tuberculose
339,Female,**/**/**,El Paso,TX,tuberculose
340,Female,**/**/**,*,TX,tuberculose
341,Female,**/**/**,*,TX,febre
342,Female,**/**/**,*,TX,dengue
343,Female,**/**/**,*,TX,gripe
344,Female,**/**/**,*,TX,gastrite
345,Female,**/**/**,*,TX,gastrite
346,Female,**/**/**,*,TX,tuberculose
347,Female,**/**/**,*,TX,tuberculose
348,Female,**/**/**,*,TX,febre
349,Female,**/**/**,*,TX,gastrite
350,Female,**/**/**,*,TX,pneumonia
351,Female,**/**/**,*,TX,pneumonia
352,Female,**/**/**,*,TX,gripe
353,Female,**/**/**,*,TX,pneumonia
354,Female,**/**/**,*,TX,dengue
355,Female,**/**/**,*,TX,gripe
356,Female,**/**/**,*,TX,pneumonia
357,Female,**/**/**,*,TX,zica
358,Female,**/**/**,*,TX,dengue
359,Female,**/**/**,*,TX,gripe
360,Female,**/**/**,*,TX,pneumonia
361,Female,**/**/**,*,TX,tuberculose
362,Female,**/**/**,*,TX,tuberculose
363,Female,**/**/**,*,TX,zica
364,Female,**/**/**,*,TX,dengue
365,Female,**/**/**,*,TX,dengue
366,Female,**/**/**,*,TX,gripe
367,Female,**/**/**,*,TX,dengue
368,Female,**/**/**,*,TX,febre
369,Female,**/**/**,*,TX,pneumonia
370,Female,**/**/**,Houston,TX,febre
371,Female,**/**/**,Houston,TX,dengue
372,Female,**/**/**,Houston,TX,gastrite
373,Female,**/**/**,Houston,TX,tuberculose
374,Female,**/**/**,Houston,TX,pneumonia
375,Female,**/**/**,Houston,TX,febre
376,Female,**/**/**,Houston,TX,febre
377,Female,**/**/**,Houston,TX,febre
378,Female,**/**/**,Houston,TX,tuberculose
379,Female,**/**/**,Houston,TX,gastrite
380,Female,**/**/**,Houston,TX,gripe
381,Female,**/**/**,Houston,TX,febre
382,Female,**/**/**,Houston,TX,gastrite
383,Female,**/**/**,Houston,TX,gastrite
384,Female,**/**/**,Houston,TX,pneumonia
385,Female,**/**/**,Houston,TX,dengue
386,Female,**/**/**,Houston,TX,zica
387,Female,**/**/**,Houston,TX,febre
388,Female,**/**/**,Houston,TX,dengue
389,Female,**/**/**,Houston,TX,pneumonia
390,Female,**/**/**,Houston,TX,febre
391,Female,**/**/**,Houston,TX,gastrite
392,Female,**/**/**,Houston,TX,tuberculose
393,Female,**/**/**,Houston,TX,gripe
394,Female,**/**/**,Houston,TX,febre
395,Female,**/**/**,Houston,TX,zica
396,Female,**/**/**,Houston,TX,gripe
397,Female,**/**/**,Houston,TX,febre
398,Female,**/**/**,Houston,TX,dengue
399,Female,**/**/**,Houston,TX,zica
400,Female,**/**/**,Houston,TX,gripe
401,Female,**/**/**,Houston,TX,gastrite
402,Female,**/**/**,Houston,TX,gripe
403,Female,**/**/**,Houston,TX,gastrite
404,Female,**/**/**,Houston,TX,gastrite
405,Female,**/**/**,Houston,TX,gripe
406,Female,**/**/**,Houston,TX,febre
407,Female,**/**/**,Houston,TX,gastrite
408,Female,**/**/**,Houston,TX,gripe
409,Female,**/**/**,Houston,TX,tuberculose
410,Female,**/**/**,Houston,TX,pneumonia
411,Female,**/**/**,Houston,TX,gripe
412,Female,**/**/**,Houston,TX,dengue
413,Female,**/**/**,Houston,TX,gripe
414,Female,**/**/**,Houston,TX,febre
415,Female,**/**/**,Houston,TX,dengue
416,Female,**/**/**,Houston,TX,dengue
417,Female,**/**/**,Houston,TX,gripe
418,Female,**/**/**,Houston,TX,dengue
419,Female,**/**/**,Houston,TX,gripe
420,Female,**/**/**,*,TX,gastrite
421,Female,**/**/**,*,TX,dengue
422,Female,**/**/**,*,TX,febre
423,Female,**/**/**,*,TX,tuberculose
424,Female,**/**/**,*,TX,febre
425,Female,**/**/**,*,TX,tuberculose
426,Female,**/**/**,*,TX,gripe
427,Female,**/**/**,*,TX,gastrite
428,Female,**/**/**,*,TX,febre
429,Female,**/**/**,*,TX,febre
430,Female,**/**/**,*,TX,pneumonia
431,Female,**/**/**,*,TX,tuberculose
432,Female,**/**/**,*,TX,zica
433,Female,**/**/**,*,TX,gastrite
434,Female,**/**/**,*,TX,gastrite
435,Female,**/**/**,*,TX,dengue
436,Female,**/**/**,*,TX,gripe
437,Female,**/**/**,*,TX,gripe
438,Female,**/**/**,*,TX,pneumonia
439,Female,**/**/**,*,TX,gastrite
440,Female,**/**/**,*,TX,tuberculose
441,Female,**/**/**,*,TX,pneumonia
442,Female,**/**/**,*,TX,febre
443,Female,**/**/**,*,TX,gripe
444,Female,**/**/**,*,TX,gastrite
445,Female,**/**/**,*,TX,zica
446,Female,**/**/**,*,TX,tuberculose
447,Female,**/**/**,*,TX,dengue
448,Female,**/**/**,*,TX,gripe
449,Female,**/**/**,*,TX,zica
450,Female,**/**/**,San Antonio,TX,zica
451,Female,**/**/**,San Antonio,TX,gripe
452,Female,**/**/**,San Antonio,TX,gripe
453,Female,**/**/**,San Antonio,TX,gastrite
454,Female,**/**/**,San Antonio,TX,pneumonia
455,Female,**/**/**,San Antonio,TX,dengue
456,Female,**/**/**,San Antonio,TX,zica
457,Female,**/**/**,San Antonio,TX,pneumonia
458,Female,**/**/**,San Antonio,TX,gripe
459,Female,**/**/**,San Antonio,TX,febre
460,Female,**/**/**,San Antonio,TX,tuberculose
461,Female,**/**/**,San Antonio,TX,tuberculose
462,Female,**/**/**,San Antonio,TX,pneumonia
463,Female,**/**/**,San Antonio,TX,tuberculose
464,Female,**/**/**,San Antonio,TX,febre
465,Female,**/**/**,San Antonio,TX,dengue
466,Female,**/**/**,San Antonio,TX,gastrite
467,Female,**/**/**,San Antonio,TX,zica
468,Female,**/**/**,San Antonio,TX,dengue
469,Female,**/**/**,San Antonio,TX,pneumonia
470,Female,**/**/**,*,TX,gastrite
471,Female,**/**/**,*,TX,febre
472,Female,**/**/**,*,TX,gastrite
473,Female,**/**/**,*,TX,febre
474,Female,**/**/**,*,TX,tuberculose
475,Female,**/**/**,*,TX,tuberculose
476,Female,**/**/**,*,TX,pneumonia
477,Female,**/**/**,*,TX,gastrite
478,Female,**/**/**,*,TX,gastrite
479,Female,**/**/**,*,TX,gripe
480,Female,**/**/**,*,*,gripe
481,Female,**/**/**,*,*,gastrite
482,Female,**/**/**,*,*,gripe
483,Female,**/**/**,*,*,febre
484,Female,**/**/**,*,*,tuberculose
485,Female,**/**/**,*,*,gastrite
486,Female,**/**/**,*,*,pneumonia
487,Female,**/**/**,*,*,pneumonia
488,Female,**/**/**,*,*,febre
489,Female,**/**/**,*,*,gastrite
490,Female,**/**/**,*,WI,pneumonia
491,Female,**/**/**,*,WI,dengue
492,Female,**/**/**,*,WI,gastrite
493,Female,**/**/**,*,WI,gastrite
494,Female,**/**/**,*,WI,zica
495,Female,**/**/**,*,WI,gastrite
496,Female,**/**/**,*,WI,zica
497,Female,**/**/**,*,WI,zica
498,Female,**/**/**,*,WI,febre
499,Female,**/**/**,*,WI,gastrite
500,Female,**/**/**,*,WI,gastrite
501,Female,**/**/**,*,WI,dengue
502,Female,**/**/**,*,WI,pneumonia
503,Female,**/**/**,*,WI,febre
504,Female,**/**/**,*,WI,febre
505,Female,**/**/**,*,WI,tuberculose
506,Female,**/**/**,*,WI,gripe
507,Female,**/**/**,*,WI,gripe
508,Female,**/**/**,*,WI,dengue
509,Female,**/**/**,*,WI,tuberculose
510,*,**/**/**,*,*,gripe
511,*,**/**/**,*,*,tuberculose
512,*,**/**/**,*,*,tuberculose
513,*,**/**/**,*,*,febre
514,*,**/**/**,*,*,dengue
515,*,**/**/**,*,*,gastrite
516,*,**/**/**,*,*,tuberculose
517,*,**/**/**,*,*,zica
518,*,**/**/**,*,*,gripe
519,*,**/**/**,*,*,pneumonia
520,Male,**/**/**,*,KS,pneumonia
521,Male,**/**/**,*,KS,dengue
522,Male,**/**/**,*,KS,tuberculose
523,Male,**/**/**,*,KS,pneumonia
524,Male,**/**/**,*,KS,tuberculose
525,Male,**/**/**,*,KS,pneumonia
526,Male,**/**/**,*,KS,gripe
527,Male,**/**/**,*,KS,gastrite
528,Male,**/**/**,*,KS,febre
529,Male,**/**/**,*,KS,gastrite
530,Male,**/**/**,*,KS,tuberculose
531,Male,**/**/**,*,KS,tuberculose
532,Male,**/**/**,*,KS,gripe
533,Male,**/**/**,*,KS,febre
534,Male,**/**/**,*,KS,gastrite
535,Male,**/**/**,*,KS,pneumonia
536,Male,**/**/**,*,KS,zica
537,Male,**/**/**,*,KS,tuberculose
538,Male,**/**/**,*,KS,gripe
539,Male,**/**/**,*,KS,zica
540,Male,**/**/**,Wichita,KS,gastrite
541,Male,**/**/**,Wichita,KS,dengue
542,Male,**/**/**,Wichita,KS,dengue
543,Male,**/**/**,Wichita,KS,tuberculose
544,Male,**/**/**,Wichita,KS,gripe
545,Male,**/**/**,Wichita,KS,gastrite
546,Male,**/**/**,Wichita,KS,gripe
547,Male,**/**/**,Wichita,KS,dengue
548,Male,**/**/**,Wichita,KS,zica
549,Male,**/**/**,Wichita,KS,pneumonia
550,Male,**/**/**,*,NY,gripe
551,Male,**/**/**,*,NY,gastrite
552,Male,**/**/**,*,NY,gastrite
553,Male,**/**/**,*,NY,gripe
554,Male,**/**/**,*,NY,dengue
555,Male,**/**/**,*,NY,febre
556,Male,**/**/**,*,NY,tuberculose
557,Male,**/**/**,*,NY,tuberculose
558,Male,**/**/**,*,NY,tuberculose
559,Male,**/**/**,*,NY,dengue
560,Male,**/**/**,*,NY,gripe
561,Male,**/**/**,*,NY,febre
562,Male,**/**/**,*,NY,febre
563,Male,**/**/**,*,NY,febre
564,Male,**/**/**,*,NY,gripe
565,Male,**/**/**,*,NY,dengue
566,Male,**/**/**,*,NY,dengue
567,Male,**/**/**,*,NY,tuberculose
568,Male,**/**/**,*,NY,tuberculose
569,Male,**/**/**,*,NY,gripe
570,Male,**/**/**,*,NY,febre
571,Male,**/**/**,*,NY,dengue
572,Male,**/**/**,*,NY,dengue
573,Male,**/**/**,*,NY,tuberculose
574,Male,**/**/**,*,NY,gripe
575,Male,**/**/**,*,NY,febre
576,Male,**/**/**,*,NY,gastrite
577,Male,**/**/**,*,NY,tuberculose
578,Male,**/**/**,*,NY,gripe
579,Male,**/**/**,*,NY,zica
580,Male,**/**/**,*,NY,tuberculose
581,Male,**/**/**,*,NY,gripe
582,Male,**/**/**,*,NY,gripe
583,Male,**/**/**,*,NY,pneumonia
584,Male,**/**/**,*,NY,gripe
585,Male,**/**/**,*,NY,gripe
586,Male,**/**/**,*,NY,febre
587,Male,**/**/**,*,NY,gripe
588,Male,**/**/**,*,NY,febre
589,Male,**/**/**,*,NY,dengue
590,Male,**/**/**,*,NY,pneumonia
591,Male,**/**/**,*,NY,gastrite
592,Male,**/**/**,*,NY,zica
593,Male,**/**/**,*,NY,gripe
594,Male,**/**/**,*,NY,tuberculose
595,Male,**/**/**,*,NY,pneumonia
596,Male,**/**/**,*,NY,febre
597,Male,**/**/**,*,NY,gastrite
598,Male,**/**/**,*,NY,tuberculose
599,Male,**/**/**,*,NY,pneumonia
600,Male,**/**/**,*,NY,pneumonia
601,Male,**/**/**,*,NY,zica
602,Male,**/**/**,*,NY,zica
603,Male,**/**/**,*,NY,pneumonia
604,Male,**/**/**,*,NY,gripe
605,Male,**/**/**,*,NY,dengue
606,Male,**/**/**,*,NY,gastrite
607,Male,**/**/**,*,NY,febre
608,Male,**/**/**,*,NY,pneumonia
609,Male,**/**/**,*,NY,gripe
610,Male,**/**/**,New York City,NY,dengue
611,Male,**/**/**,New York City,NY,zica
612,Male,**/**/**,New York City,NY,pneumonia
613,Male,**/**/**,New York City,NY,gastrite
614,Male,**/**/**,New York City,NY,gastrite
615,Male,**/**/**,New York City,NY,gastrite
616,Male,**/**/**,New York City,NY,febre
617,Male,**/**/**,New York City,NY,zica
618,Male,**/**/**,New York City,NY,tuberculose
619,Male,**/**/**,New York City,NY,gripe
620,Male,**/**/**,New York City,NY,gripe
621,Male,**/**/**,New York City,NY,tuberculose
622,Male,**/**/**,New York City,NY,febre
623,Male,**/**/**,New York City,NY,febre
624,Male,**/**/**,New York City,NY,tuberculose
625,Male,**/**/**,New York City,NY,dengue
626,Male,**/**/**,New York City,NY,gripe
627,Male,**/**/**,New York City,NY,pneumonia
628,Male,**/**/**,New York City,NY,febre
629,Male,**/**/**,New York City,NY,gripe
630,Male,**/**/**,New York City,NY,gripe
631,Male,**/**/**,New York City,NY,gripe
632,Male,**/**/**,New York City,NY,gripe
633,Male,**/**/**,New York City,NY,febre
634,Male,**/**/**,New York City,NY,tuberculose
635,Male,**/**/**,New York City,NY,dengue
636,Male,**/**/**,New York City,NY,zica
637,Male,**/**/**,New York City,NY,pneumonia
638,Male,**/**/**,New York City,NY,tuberculose
639,Male,**/**/**,New York City,NY,dengue
640,Male,**/**/**,*,NY,tuberculose
641,Male,**/**/**,*,NY,zica
642,Male,**/**/**,*,NY,febre
643,Male,**/**/**,*,NY,zica
644,Male,**/**/**,*,NY,zica
645,Male,**/**/**,*,NY,febre
646,Male,**/**/**,*,NY,gastrite
647,Male,**/**/**,*,NY,pneumonia
648,Male,**/**/**,*,NY,febre
649,Male,**/**/**,*,NY,gastrite
650,Male,**/**/**,*,NY,febre
651,Male,**/**/**,*,NY,pneumonia
652,Male,**/**/**,*,NY,gastrite
653,Male,**/**/**,*,NY,dengue
654,Male,**/**/**,*,NY,gripe
655,Male,**/**/**,*,NY,tuberculose
656,Male,**/**/**,*,NY,gripe
657,Male,**/**/**,*,NY,febre
658,Male,**/**/**,*,NY,gastrite
659,Male,**/**/**,*,NY,tuberculose
660,Male,**/**/**,*,NY,zica
661,Male,**/**/**,*,NY,gripe
662,Male,**/**/**,*,NY,tuberculose
663,Male,**/**/**,*,NY,pneumonia
664,Male,**/**/**,*,NY,gripe
665,Male,**/**/**,*,NY,gastrite
666,Male,**/**/**,*,NY,zica
667,Male,**/**/**,*,NY,zica
668,Male,**/**/**,*,NY,tuberculose
669,Male,**/**/**,*,NY,dengue
670,Male,**/**/**,*,*,tuberculose
671,Male,**/**/**,*,*,gastrite
672,Male,**/**/**,*,*,gripe
673,Male,**/**/**,*,*,gripe
674,Male,**/**/**,*,*,gripe
675,Male,**/**/**,*,*,zica
676,Male,**/**/**,*,*,tuberculose
677,Male,**/**/**,*,*,gastrite
678,Male,**/**/**,*,*,zica
679,Male,**/**/**,*,*,gripe
680,Male,**/**/**,*,TN,gripe
681,Male,**/**/**,*,TN,pneumonia
682,Male,**/**/**,*,TN,febre
683,Male,**/**/**,*,TN,zica
684,Male,**/**/**,*,TN,dengue
685,Male,**/**/**,*,TN,tuberculose
686,Male,**/**/**,*,TN,gripe
687,Male,**/**/**,*,TN,febre
688,Male,**/**/**,*,TN,tuberculose
689,Male,**/**/**,*,TN,zica
690,Male,**/**/**,Knoxville,TN,tuberculose
691,Male,**/**/**,Knoxville,TN,febre
692,Male,**/**/**,Knoxville,TN,febre
693,Male,**/**/**,Knoxville,TN,dengue
694,Male,**/**/**,Knoxville,TN,gripe
695,Male,**/**/**,Knoxville,TN,dengue
696,Male,**/**/**,Knoxville,TN,tuberculose
697,Male,**/**/**,Knoxville,TN,gastrite
698,Male,**/**/**,Knoxville,TN,gripe
699,Male,**/**/**,Knoxville,TN,dengue
700,Male,**/**/**,Memphis,TN,tuberculose
701,Male,**/**/**,Memphis,TN,tuberculose
702,Male,**/**/**,Memphis,TN,gripe
703,Male,**/**/**,Memphis,TN,dengue
704,Male,**/**/**,Memphis,TN,zica
705,Male,**/**/**,Memphis,TN,dengue
706,Male,**/**/**,Memphis,TN,dengue
707,Male,**/**/**,Memphis,TN,febre
708,Male,**/**/**,Memphis,TN,dengue
709,Male,**/**/**,Memphis,TN,gastrite
710,Male,**/**/**,*,TN,dengue
711,Male,**/**/**,*,TN,zica
712,Male,**/**/**,*,TN,gastrite
713,Male,**/**/**,*,TN,gripe
714,Male,**/**/**,*,TN,gripe
715,Male,**/**/**,*,TN,dengue
716,Male,**/**/**,*,TN,pneumonia
717,Male,**/**/**,*,TN,tuberculose
718,Male,**/**/**,*,TN,dengue
719,Male,**/**/**,*,TN,febre
720,Male,**/**/**,*,*,gripe
721,Male,**/**/**,*,*,dengue
722,Male,**/**/**,*,*,gripe
723,Male,**/**/**,*,*,gripe
724,Male,**/**/**,*,*,dengue
725,Male,**/**/**,*,*,febre
726,Male,**/**/**,*,*,febre
727,Male,**/**/**,*,*,febre
728,Male,**/**/**,*,*,febre
729,Male,**/**/**,*,*,febre
730,Male,**/**/**,*,TX,gripe
731,Male,**/**/**,*,TX,gripe
732,Male,**/**/**,*,TX,zica
733,Male,**/**/**,*,TX,gastrite
734,Male,**/**/**,*,TX,dengue
735,Male,**/**/**,*,TX,gastrite
736,Male,**/**/**,*,TX,gastrite
737,Male,**/**/**,*,TX,tuberculose
738,Male,**/**/**,*,TX,febre
739,Male,**/**/**,*,TX,gastrite
740,Male,**/**/**,*,TX,gripe
741,Male,**/**/**,*,TX,gastrite
742,Male,**/**/**,*,TX,febre
743,Male,**/**/**,*,TX,gripe
744,Male,**/**/**,*,TX,febre
745,Male,**/**/**,*,TX,gripe
746,Male,**/**/**,*,TX,febre
747,Male,**/**/**,*,TX,gripe
748,Male,**/**/**,*,TX,zica
749,Male,**/**/**,*,TX,pneumonia
750,Male,**/**/**,Austin,TX,gripe
751,Male,**/**/**,Austin,TX,febre
752,Male,**/**/**,Austin,TX,dengue
753,Male,**/**/**,Austin,TX,febre
754,Male,**/**/**,Austin,TX,tuberculose
755,Male,**/**/**,Austin,TX,febre
756,Male,**/**/**,Austin,TX,dengue
757,Male,**/**/**,Austin,TX,tuberculose
758,Male,**/**/**,Austin,TX,tuberculose
759,Male,**/**/**,Austin,TX,gastrite
760,Male,**/**/**,*,TX,tuberculose
761,Male,**/**/**,*,TX,tuberculose
762,Male,**/**/**,*,TX,tuberculose
763,Male,**/**/**,*,TX,pneumonia
764,Male,**/**/**,*,TX,gastrite
765,Male,**/**/**,*,TX,gastrite
766,Male,**/**/**,*,TX,gripe
767,Male,**/**/**,*,TX,gripe
768,Male,**/**/**,*,TX,febre
769,Male,**/**/**,*,TX,febre
770,Male,**/**/**,*,TX,febre
771,Male,**/**/**,*,TX,tuberculose
772,Male,**/**/**,*,TX,gripe
773,Male,**/**/**,*,TX,pneumonia
774,Male,**/**/**,*,TX,febre
775,Male,**/**/**,*,TX,pneumonia
776,Male,**/**/**,*,TX,gastrite
777,Male,**/**/**,*,TX,dengue
778,Male,**/**/**,*,TX,dengue
779,Male,**/**/**,*,TX,febre
780,Male,**/**/**,Dallas,TX,tuberculose
781,Male,**/**/**,Dallas,TX,tuberculose
782,Male,**/**/**,Dallas,TX,gripe
783,Male,**/**/**,Dallas,TX,pneumonia
784,Male,**/**/**,Dallas,TX,tuberculose
785,Male,**/**/**,Dallas,TX,febre
786,Male,**/**/**,Dallas,TX,tuberculose
787,Male,**/**/**,Dallas,TX,dengue
788,Male,**/**/**,Dallas,TX,gripe
789,Male,**/**/**,Dallas,TX,gastrite
790,Male,**/**/**,Dallas,TX,gripe
791,Male,**/**/**,Dallas,TX,gripe
792,Male,**/**/**,Dallas,TX,zica
793,Male,**/**/**,Dallas,TX,gripe
794,Male,**/**/**,Dallas,TX,dengue
795,Male,**/**/**,Dallas,TX,tuberculose
796,Male,**/**/**,Dallas,TX,febre
797,Male,**/**/**,Dallas,TX,febre
798,Male,**/**/**,Dallas,TX,zica
799,Male,**/**/**,Dallas,TX,gripe
800,Male,**/**/**,*,TX,zica
801,Male,**/**/**,*,TX,febre
802,Male,**/**/**,*,TX,febre
803,Male,**/**/**,*,TX,gripe
804,Male,**/**/**,*,TX,dengue
805,Male,**/**/**,*,TX,gastrite
806,Male,**/**/**,*,TX,gripe
807,Male,**/**/**,*,TX,gripe
808,Male,**/**/**,*,TX,febre
809,Male,**/**/**,*,TX,gastrite
810,Male,**/**/**,El Paso,TX,febre
811,Male,**/**/**,El Paso,TX,dengue
812,Male,**/**/**,El Paso,TX,febre
813,Male,**/**/**,El Paso,TX,febre
814,Male,**/**/**,El Paso,TX,tuberculose
815,Male,**/**/**,El Paso,TX,dengue
816,Male,**/**/**,El Paso,TX,dengue
817,Male,**/**/**,El Paso,TX,pneumonia
818,Male,**/**/**,El Paso,TX,zica
819,Male,**/**/**,El Paso,TX,tuberculose
820,Male,**/**/**,El Paso,TX,febre
821,Male,**/**/**,El Paso,TX,tuberculose
822,Male,**/**/**,El Paso,TX,gripe
823,Male,**/**/**,El Paso,TX,tuberculose
824,Male,**/**/**,El Paso,TX,dengue
825,Male,**/**/**,El Paso,TX,febre
826,Male,**/**/**,El Paso,TX,gripe
827,Male,**/**/**,El Paso,TX,gripe
828,Male,**/**/**,El Paso,TX,pneumonia
829,Male,**/**/**,El Paso,TX,gripe
830,Male,**/**/**,El Paso,TX,gastrite
831,Male,**/**/**,El Paso,TX,gripe
832,Male,**/**/**,El Paso,TX,pneumonia
833,Male,**/**/**,El Paso,TX,tuberculose
834,Male,**/**/**,El Paso,TX,febre
835,Male,**/**/**,El Paso,TX,gastrite
836,Male,**/**/**,El Paso,TX,zica
837,Male,**/**/**,El Paso,TX,zica
838,Male,**/**/**,El Paso,TX,zica
839,Male,**/**/**,El Paso,TX,gastrite
840,Male,**/**/**,*,TX,gripe
841,Male,**/**/**,*,TX,tuberculose
842,Male,**/**/**,*,TX,zica
843,Male,**/**/**,*,TX,dengue
844,Male,**/**/**,*,TX,gripe
845,Male,**/**/**,*,TX,pneumonia
846,Male,**/**/**,*,TX,gastrite
847,Male,**/**/**,*,TX,gastrite
848,Male,**/**/**,*,TX,dengue
849,Male,**/**/**,*,TX,tuberculose
850,Male,**/**/**,*,TX,pneumonia
851,Male,**/**/**,*,TX,gripe
852,Male,**/**/**,*,TX,dengue
853,Male,**/**/**,*,TX,febre
854,Male,**/**/**,*,TX,febre
855,Male,**/**/**,*,TX,gripe
856,Male,**/**/**,*,TX,tuberculose
857,Male,**/**/**,*,TX,febre
858,Male,**/**/**,*,TX,febre
859,Male,**/**/**,*,TX,dengue
860,Male,**/**/**,Houston,TX,tuberculose
861,Male,**/**/**,Houston,TX,tuberculose
862,Male,**/**/**,Houston,TX,febre
863,Male,**/**/**,Houston,TX,gripe
864,Male,**/**/**,Houston,TX,tuberculose
865,Male,**/**/**,Houston,TX,febre
866,Male,**/**/**,Houston,TX,gripe
867,Male,**/**/**,Houston,TX,febre
868,Male,**/**/**,Houston,TX,gastrite
869,Male,**/**/**,Houston,TX,gripe
870,Male,**/**/**,Houston,TX,dengue
871,Male,**/**/**,Houston,TX,tuberculose
872,Male,**/**/**,Houston,TX,gripe
873,Male,**/**/**,Houston,TX,gripe
874,Male,**/**/**,Houston,TX,tuberculose
875,Male,**/**/**,Houston,TX,zica
876,Male,**/**/**,Houston,TX,febre
877,Male,**/**/**,Houston,TX,pneumonia
878,Male,**/**/**,Houston,TX,gripe
879,Male,**/**/**,Houston,TX,dengue
880,Male,**/**/**,Houston,TX,dengue
881,Male,**/**/**,Houston,TX,gastrite
882,Male,**/**/**,Houston,TX,gastrite
883,Male,**/**/**,Houston,TX,dengue
884,Male,**/**/**,Houston,TX,zica
885,Male,**/**/**,Houston,TX,gripe
886,Male,**/**/**,Houston,TX,gripe
887,Male,**/**/**,Houston,TX,pneumonia
888,Male,**/**/**,Houston,TX,gripe
889,Male,**/**/**,Houston,TX,gastrite
890,Male,**/**/**,Houston,TX,dengue
891,Male,**/**/**,Houston,TX,gastrite
892,Male,**/**/**,Houston,TX,gripe
893,Male,**/**/**,Houston,TX,febre
894,Male,**/**/**,Houston,TX,gastrite
895,Male,**/**/**,Houston,TX,gripe
896,Male,**/**/**,Houston,TX,gastrite
897,Male,**/**/**,Houston,TX,pneumonia
898,Male,**/**/**,Houston,TX,gripe
899,Male,**/**/**,Houston,TX,dengue
900,Male,**/**/**,*,TX,gastrite
901,Male,**/**/**,*,TX,tuberculose
902,Male,**/**/**,*,TX,febre
903,Male,**/**/**,*,TX,gripe
904,Male,**/**/**,*,TX,pneumonia
905,Male,**/**/**,*,TX,tuberculose
906,Male,**/**/**,*,TX,pneumonia
907,Male,**/**/**,*,TX,gripe
908,Male,**/**/**,*,TX,dengue
909,Male,**/**/**,*,TX,tuberculose
910,Male,**/**/**,*,TX,gripe
911,Male,**/**/**,*,TX,pneumonia
912,Male,**/**/**,*,TX,dengue
913,Male,**/**/**,*,TX,tuberculose
914,Male,**/**/**,*,TX,pneumonia
915,Male,**/**/**,*,TX,gripe
916,Male,**/**/**,*,TX,gastrite
917,Male,**/**/**,*,TX,pneumonia
918,Male,**/**/**,*,TX,gripe
919,Male,**/**/**,*,TX,tuberculose
920,Male,**/**/**,*,TX,gripe
921,Male,**/**/**,*,TX,dengue
922,Male,**/**/**,*,TX,febre
923,Male,**/**/**,*,TX,febre
924,Male,**/**/**,*,TX,gripe
925,Male,**/**/**,*,TX,tuberculose
926,Male,**/**/**,*,TX,gripe
927,Male,**/**/**,*,TX,tuberculose
928,Male,**/**/**,*,TX,febre
929,Male,**/**/**,*,TX,tuberculose
930,Male,**/**/**,*,TX,pneumonia
931,Male,**/**/**,*,TX,dengue
932,Male,**/**/**,*,TX,pneumonia
933,Male,**/**/**,*,TX,febre
934,Male,**/**/**,*,TX,gripe
935,Male,**/**/**,*,TX,pneumonia
936,Male,**/**/**,*,TX,tuberculose
937,Male,**/**/**,*,TX,febre
938,Male,**/**/**,*,TX,gripe
939,Male,**/**/**,*,TX,tuberculose
940,Male,**/**/**,San Antonio,TX,gripe
941,Male,**/**/**,San Antonio,TX,dengue
942,Male,**/**/**,San Antonio,TX,pneumonia
943,Male,**/**/**,San Antonio,TX,tuberculose
944,Male,**/**/**,San Antonio,TX,tuberculose
945,Male,**/**/**,San Antonio,TX,gripe
946,Male,**/**/**,San Antonio,TX,febre
947,Male,**/**/**,San Antonio,TX,gastrite
948,Male,**/**/**,San Antonio,TX,zica
949,Male,**/**/**,San Antonio,TX,pneumonia
950,Male,**/**/**,*,TX,febre
951,Male,**/**/**,*,TX,gripe
952,Male,**/**/**,*,TX,gripe
953,Male,**/**/**,*,TX,zica
954,Male,**/**/**,*,TX,gripe
955,Male,**/**/**,*,TX,tuberculose
956,Male,**/**/**,*,TX,febre
957,Male,**/**/**,*,TX,febre
958,Male,**/**/**,*,TX,dengue
959,Male,**/**/**,*,TX,dengue
960,Male,**/**/**,*,TX,febre
961,Male,**/**/**,*,TX,pneumonia
962,Male,**/**/**,*,TX,pneumonia
963,Male,**/**/**,*,TX,gripe
964,Male,**/**/**,*,TX,gripe
965,Male,**/**/**,*,TX,zica
966,Male,**/**/**,*,TX,tuberculose
967,Male,**/**/**,*,TX,gripe
968,Male,**/**/**,*,TX,gripe
969,Male,**/**/**,*,TX,dengue
970,Male,**/**/**,*,*,gripe
971,Male,**/**/**,*,*,tuberculose
972,Male,**/**/**,*,*,febre
973,Male,**/**/**,*,*,gripe
974,Male,**/**/**,*,*,gripe
975,Male,**/**/**,*,*,tuberculose
976,Male,**/**/**,*,*,pneumonia
977,Male,**/**/**,*,*,gastrite
978,Male,**/**/**,*,*,pneumonia
979,Male,**/**/**,*,*,febre
980,Male,**/**/**,*,WI,tuberculose
981,Male,**/**/**,*,WI,tuberculose
982,Male,**/**/**,*,WI,gripe
983,Male,**/**/**,*,WI,febre
984,Male,**/**/**,*,WI,febre
985,Male,**/**/**,*,WI,gripe
986,Male,**/**/**,*,WI,gastrite
987,Male,**/**/**,*,WI,dengue
988,Male,**/**/**,*,WI,gastrite
989,Male,**/**/**,*,WI,dengue
990,Male,**/**/**,*,WI,febre
991,Male,**/**/**,*,WI,gripe
992,Male,**/**/**,*,WI,gripe
993,Male,**/**/**,*,WI,tuberculose
994,Male,**/**/**,*,WI,dengue
995,Male,**/**/**,*,WI,gastrite
996,Male,**/**/**,*,WI,zica
997,Male,**/**/**,*,WI,tuberculose
998,Male,**/**/**,*,WI,tuberculose
999,Male,**/**/**,*,WI,febre
